<?xml version="1.0" encoding="utf-8"?>
<!-- Generator: Adobe Illustrator 24.0.1, SVG Export Plug-In . SVG Version: 6.00 Build 0)  -->
<svg version="1.1" id="Layer_1" xmlns="http://www.w3.org/2000/svg" xmlns:xlink="http://www.w3.org/1999/xlink" x="0px" y="0px"
	 viewBox="0 0 234 163" style="enable-background:new 0 0 234 163;" xml:space="preserve">
<style type="text/css">
	.st0{enable-background:new    ;}
	.st1{fill:#00416A;}
</style>
<g id="Group_3335" transform="translate(-90 -1191)">
	<g id="Group_3363">
		<g class="st0">
			<path class="st1" d="M171.1,1298v-13.3h4.6c0.9,0,1.7,0.2,2.4,0.5c0.6,0.3,1.1,0.7,1.5,1.2c0.3,0.5,0.5,1.1,0.5,1.8
				c0,0.5-0.1,0.9-0.2,1.2c-0.2,0.3-0.4,0.6-0.6,0.9c-0.2,0.2-0.5,0.4-0.7,0.5c-0.2,0.1-0.4,0.2-0.5,0.2c0.2,0,0.5,0.1,0.8,0.2
				c0.3,0.1,0.6,0.3,0.9,0.6c0.3,0.3,0.5,0.6,0.7,1s0.3,0.9,0.3,1.5c0,0.9-0.2,1.7-0.6,2.3c-0.4,0.6-1,1-1.8,1.2s-1.6,0.4-2.5,0.4
				H171.1z M173.5,1290h2c0.5,0,1-0.1,1.4-0.4s0.6-0.7,0.6-1.3c0-0.4-0.1-0.7-0.3-1s-0.5-0.4-0.8-0.5c-0.3-0.1-0.6-0.1-0.9-0.1h-2
				V1290z M173.5,1295.9h2.1c0.2,0,0.5,0,0.8-0.1c0.3,0,0.6-0.1,0.8-0.2c0.3-0.1,0.5-0.3,0.6-0.6c0.2-0.3,0.2-0.6,0.2-1
				c0-0.5-0.1-0.9-0.4-1.2s-0.6-0.5-1-0.6c-0.4-0.1-0.8-0.2-1.1-0.2h-2.1V1295.9z"/>
			<path class="st1" d="M183,1298v-13.3h2.5v13.3H183z"/>
			<path class="st1" d="M188.3,1298v-13.3h2.5v11.1h6.6v2.2H188.3z"/>
			<path class="st1" d="M199.4,1298v-13.3h2.5v11.1h6.6v2.2H199.4z"/>
			<path class="st1" d="M210.5,1298v-13.3h2.5v13.3H210.5z"/>
			<path class="st1" d="M222.2,1298.4c-1,0-1.9-0.2-2.7-0.6c-0.8-0.4-1.6-0.9-2.2-1.5c-0.6-0.6-1.1-1.4-1.5-2.2
				c-0.4-0.8-0.5-1.8-0.5-2.7c0-1,0.2-1.9,0.5-2.7c0.4-0.8,0.8-1.6,1.5-2.2c0.6-0.6,1.4-1.1,2.2-1.5c0.8-0.4,1.7-0.5,2.7-0.5
				c1,0,1.9,0.2,2.7,0.5c0.8,0.4,1.6,0.9,2.2,1.5c0.6,0.6,1.1,1.4,1.5,2.2s0.5,1.8,0.5,2.7c0,1-0.2,1.9-0.5,2.7s-0.8,1.6-1.5,2.2
				c-0.6,0.6-1.4,1.2-2.2,1.5C224.1,1298.2,223.2,1298.4,222.2,1298.4z M222.2,1296c0.9,0,1.6-0.2,2.3-0.7c0.6-0.4,1.1-1,1.5-1.7
				c0.4-0.7,0.5-1.5,0.5-2.3c0-0.9-0.2-1.6-0.5-2.3c-0.3-0.7-0.8-1.3-1.5-1.7s-1.4-0.6-2.3-0.6c-0.9,0-1.6,0.2-2.3,0.6
				c-0.6,0.4-1.1,1-1.5,1.7c-0.3,0.7-0.5,1.5-0.5,2.3c0,0.8,0.2,1.6,0.5,2.3c0.3,0.7,0.8,1.3,1.5,1.7
				C220.6,1295.8,221.3,1296,222.2,1296z"/>
			<path class="st1" d="M231.4,1298v-13.3h2.5l6.5,9.5v-9.5h2.5v13.3h-2.5l-6.5-9.6v9.6H231.4z"/>
		</g>
		<g class="st0">
			<path class="st1" d="M166,1210l5.1-13.3h2.6l5.1,13.3h-2.8l-1.2-3.4h-5l-1.2,3.4H166z M170.5,1204.5h3.5l-1.8-5.2L170.5,1204.5z"
				/>
			<path class="st1" d="M180.3,1210v-13.3h4.4c0.8,0,1.6,0.1,2.1,0.4c0.6,0.3,1.1,0.6,1.4,1c0.4,0.4,0.6,0.8,0.8,1.3
				c0.2,0.5,0.2,0.9,0.2,1.3c0,0.8-0.2,1.6-0.6,2.2c-0.4,0.6-0.9,1.2-1.7,1.5l3.1,5.6h-2.8l-2.7-5.3h-1.9v5.3H180.3z M182.7,1202.7
				h2c0.6,0,1.1-0.2,1.5-0.6c0.4-0.4,0.5-0.8,0.5-1.4c0-0.6-0.2-1-0.6-1.4c-0.4-0.4-0.9-0.5-1.5-0.5h-2V1202.7z"/>
			<path class="st1" d="M198.3,1210.4c-1,0-1.9-0.2-2.7-0.6c-0.8-0.4-1.6-0.9-2.2-1.5c-0.6-0.6-1.1-1.4-1.5-2.2
				c-0.4-0.8-0.5-1.8-0.5-2.7c0-1,0.2-1.9,0.5-2.7c0.4-0.8,0.8-1.6,1.5-2.2c0.6-0.6,1.4-1.1,2.2-1.5c0.8-0.4,1.7-0.5,2.7-0.5
				s1.9,0.2,2.7,0.5c0.8,0.4,1.6,0.9,2.2,1.5c0.6,0.6,1.1,1.4,1.5,2.2c0.4,0.8,0.5,1.8,0.5,2.7c0,1-0.2,1.9-0.5,2.7
				c-0.4,0.8-0.8,1.6-1.5,2.2s-1.4,1.2-2.2,1.5C200.1,1210.2,199.2,1210.4,198.3,1210.4z M198.3,1208c0.9,0,1.6-0.2,2.3-0.7
				c0.6-0.4,1.1-1,1.5-1.7c0.4-0.7,0.5-1.5,0.5-2.3c0-0.9-0.2-1.6-0.5-2.3c-0.3-0.7-0.8-1.3-1.5-1.7c-0.6-0.4-1.4-0.6-2.3-0.6
				c-0.9,0-1.6,0.2-2.3,0.6c-0.6,0.4-1.1,1-1.5,1.7c-0.3,0.7-0.5,1.5-0.5,2.3c0,0.8,0.2,1.6,0.5,2.3c0.3,0.7,0.8,1.3,1.5,1.7
				C196.6,1207.8,197.4,1208,198.3,1208z"/>
			<path class="st1" d="M207.4,1205.1v-8.4h2.5v8c0,1,0.2,1.8,0.6,2.4c0.4,0.6,1.2,0.9,2.3,0.9c1.1,0,1.9-0.3,2.3-0.9
				c0.4-0.6,0.6-1.4,0.6-2.4v-8h2.5v8.4c0,1-0.2,1.9-0.6,2.7s-1,1.4-1.9,1.9s-1.8,0.7-2.9,0.7c-1.2,0-2.1-0.2-3-0.7
				c-0.8-0.5-1.4-1.1-1.9-1.9S207.4,1206.1,207.4,1205.1z"/>
			<path class="st1" d="M221,1210v-13.3h2.5l6.5,9.5v-9.5h2.5v13.3h-2.5l-6.5-9.6v9.6H221z"/>
			<path class="st1" d="M235.2,1210v-13.3h5c1.4,0,2.6,0.2,3.7,0.7c1.1,0.5,1.9,1.2,2.5,2.2c0.6,1,0.9,2.3,0.9,3.8
				c0,1.5-0.3,2.7-0.9,3.7c-0.6,1-1.5,1.7-2.5,2.2c-1.1,0.5-2.3,0.7-3.7,0.7H235.2z M237.7,1207.8h2.2c1.5,0,2.7-0.4,3.5-1.1
				c0.8-0.7,1.2-1.8,1.2-3.2c0-1.4-0.4-2.5-1.1-3.3c-0.7-0.8-1.9-1.2-3.6-1.2h-2.2V1207.8z"/>
		</g>
		<g id="Group_3334">
			<g id="Group_2978" transform="translate(-416 218)">
				<g class="st0">
					<path class="st1" d="M623.4,1044.3h9.3v-29.8l-8.9,4.8l-5.2-9.3l15.9-8.8h10.1v43.1h8.8v10.5h-29.9V1044.3z"/>
				</g>
				<g class="st0">
					<path class="st1" d="M586.7,1032.8l4.3-3.9c0.5,0.5,1.1,1.1,1.8,1.8c0.7,0.6,1.5,1.2,2.4,1.8c0.9,0.5,2,0.9,3.1,1v-9.4
						c-2.5-0.6-4.4-1.4-5.9-2.3c-1.4-1-2.5-2-3.1-3.3c-0.6-1.2-0.9-2.5-0.9-3.9c0-2.3,0.8-4.3,2.4-6c1.6-1.7,4.1-2.7,7.4-3v-4.7h3.8
						v4.7c1.9,0.2,3.5,0.6,4.6,1.2c1.2,0.6,2.1,1.2,2.8,1.9c0.7,0.6,1.1,1.1,1.4,1.4l-4.2,3.8c-0.2-0.3-0.7-0.8-1.5-1.5
						c-0.8-0.7-1.8-1.2-3.1-1.5v8.4c1.7,0.4,3.3,1,4.8,1.8c1.5,0.8,2.7,1.9,3.6,3.2s1.4,3,1.4,5.1c0,2.5-0.9,4.6-2.7,6.3
						c-1.8,1.7-4.2,2.7-7,3.1v4.7h-3.8v-4.6c-1.9-0.2-3.7-0.6-5.2-1.2c-1.5-0.7-2.8-1.4-3.9-2.3
						C588.2,1034.4,587.3,1033.6,586.7,1032.8z M598.2,1018.5v-7.7c-1.5,0.2-2.5,0.7-3.1,1.4c-0.6,0.7-0.9,1.5-0.9,2.4
						c0,1,0.3,1.7,0.9,2.3C595.6,1017.4,596.7,1018,598.2,1018.5z M602.1,1025.1v8.2c1.4-0.2,2.3-0.7,3-1.4c0.6-0.7,0.9-1.6,0.9-2.8
						c0-0.9-0.3-1.6-0.8-2.3C604.7,1026.3,603.6,1025.7,602.1,1025.1z"/>
				</g>
			</g>
			<g class="st0">
				<path d="M95.9,1311.7h2l5.2,13.3H101l-1.4-3.7h-5.5l-1.4,3.7h-2L95.9,1311.7z M99,1319.7l-2.2-5.9l-2.2,5.9H99z"/>
				<path d="M102.3,1311.7h2.1l4.1,11l4.1-11h2l-5.2,13.3h-2L102.3,1311.7z"/>
				<path d="M116.3,1311.7h8.4v1.7h-6.5v3.9h4.9v1.7h-4.9v4.3h7v1.7h-8.9V1311.7z"/>
				<path d="M127.6,1311.7h4.3c0.9,0,1.6,0.1,2.2,0.3c0.6,0.2,1.1,0.5,1.4,0.9c0.4,0.4,0.6,0.8,0.8,1.2c0.2,0.5,0.2,0.9,0.2,1.4
					c0,0.9-0.2,1.6-0.6,2.3c-0.4,0.7-1,1.1-1.9,1.5l3.1,5.7H135l-2.9-5.5h-2.7v5.5h-1.9V1311.7z M132,1317.9c0.8,0,1.5-0.2,1.9-0.6
					c0.4-0.4,0.6-1,0.6-1.7c0-0.7-0.2-1.3-0.7-1.7c-0.5-0.4-1.1-0.6-1.9-0.6h-2.5v4.6H132z"/>
				<path d="M143,1311.7h2l5.2,13.3H148l-1.4-3.7h-5.5l-1.4,3.7h-2L143,1311.7z M146.1,1319.7l-2.2-5.9l-2.2,5.9H146.1z"/>
				<path d="M158.7,1318.2h4.7v5.3c-0.3,0.2-0.5,0.4-0.9,0.7s-0.7,0.4-1.1,0.6c-0.4,0.2-0.9,0.3-1.4,0.4c-0.5,0.1-1.1,0.2-1.8,0.2
					c-1,0-2-0.2-2.8-0.5c-0.8-0.4-1.5-0.8-2.1-1.5s-1-1.4-1.4-2.2c-0.3-0.8-0.5-1.8-0.5-2.8c0-1,0.2-1.9,0.5-2.7
					c0.3-0.9,0.8-1.6,1.4-2.2c0.6-0.6,1.3-1.1,2.1-1.5c0.8-0.4,1.7-0.5,2.7-0.5c0.7,0,1.3,0.1,1.9,0.2c0.6,0.2,1,0.4,1.5,0.6
					c0.4,0.3,0.8,0.5,1.1,0.8c0.3,0.3,0.5,0.6,0.7,0.9l-1.4,1.2c-0.2-0.2-0.4-0.5-0.6-0.7s-0.5-0.5-0.8-0.7
					c-0.3-0.2-0.7-0.4-1.1-0.5c-0.4-0.1-0.8-0.2-1.3-0.2c-0.7,0-1.4,0.1-2,0.4c-0.6,0.3-1.1,0.7-1.5,1.1c-0.4,0.5-0.7,1-0.9,1.7
					c-0.2,0.6-0.3,1.3-0.3,2c0,0.8,0.1,1.5,0.4,2.1c0.2,0.6,0.6,1.2,1,1.7c0.4,0.5,0.9,0.8,1.5,1.1c0.6,0.3,1.2,0.4,1.9,0.4
					c0.8,0,1.4-0.1,2-0.3c0.5-0.2,1-0.4,1.4-0.7v-2.7h-2.8V1318.2z"/>
				<path d="M166.3,1311.7h8.4v1.7h-6.5v3.9h4.9v1.7h-4.9v4.3h7v1.7h-8.9V1311.7z"/>
				<path d="M181.2,1311.7h4.5c1.1,0,2,0.1,2.9,0.4c0.9,0.3,1.6,0.7,2.3,1.2c0.6,0.6,1.1,1.2,1.5,2.1c0.4,0.8,0.5,1.8,0.5,3
					c0,1.1-0.2,2.1-0.5,2.9c-0.4,0.8-0.9,1.5-1.5,2.1c-0.6,0.6-1.4,1-2.3,1.2c-0.9,0.3-1.9,0.4-2.9,0.4h-4.4V1311.7z M185.6,1323.3
					c1.7,0,3-0.4,3.9-1.2c0.9-0.8,1.4-2,1.4-3.6c0-1.6-0.4-2.9-1.3-3.7s-2.2-1.3-4-1.3h-2.4v9.9H185.6z"/>
				<path d="M199.4,1311.7h2l5.2,13.3h-2.1l-1.4-3.7h-5.5l-1.4,3.7h-2L199.4,1311.7z M202.5,1319.7l-2.2-5.9l-2.2,5.9H202.5z"/>
				<path d="M208.4,1311.7h1.9v13.3h-1.9V1311.7z"/>
				<path d="M213.3,1311.7h1.9v11.6h6.9v1.7h-8.9V1311.7z"/>
				<path d="M224.9,1319l-4.6-7.4h2.1l3.5,5.7l3.5-5.7h2.1l-4.6,7.4v6h-1.9V1319z"/>
				<path d="M240.6,1313.3h-4.8v-1.7h11.5v1.7h-4.8v11.7h-1.9V1313.3z"/>
				<path d="M249.3,1311.7h4.3c0.9,0,1.6,0.1,2.2,0.3c0.6,0.2,1.1,0.5,1.4,0.9c0.4,0.4,0.6,0.8,0.8,1.2c0.2,0.5,0.2,0.9,0.2,1.4
					c0,0.9-0.2,1.6-0.6,2.3s-1,1.1-1.9,1.5l3.1,5.7h-2.2l-2.9-5.5h-2.7v5.5h-1.9V1311.7z M253.7,1317.9c0.8,0,1.5-0.2,1.9-0.6
					c0.4-0.4,0.6-1,0.6-1.7c0-0.7-0.2-1.3-0.7-1.7c-0.5-0.4-1.1-0.6-1.9-0.6h-2.5v4.6H253.7z"/>
				<path d="M264.7,1311.7h2l5.2,13.3h-2.1l-1.4-3.7h-5.5l-1.4,3.7h-2L264.7,1311.7z M267.7,1319.7l-2.2-5.9l-2.2,5.9H267.7z"/>
				<path d="M273.6,1311.7h4.5c1.1,0,2,0.1,2.9,0.4c0.9,0.3,1.6,0.7,2.3,1.2c0.6,0.6,1.1,1.2,1.5,2.1c0.4,0.8,0.5,1.8,0.5,3
					c0,1.1-0.2,2.1-0.5,2.9c-0.4,0.8-0.9,1.5-1.5,2.1c-0.6,0.6-1.4,1-2.3,1.2c-0.9,0.3-1.9,0.4-2.9,0.4h-4.4V1311.7z M278,1323.3
					c1.7,0,3-0.4,3.9-1.2c0.9-0.8,1.4-2,1.4-3.6c0-1.6-0.4-2.9-1.3-3.7s-2.2-1.3-4-1.3h-2.4v9.9H278z"/>
				<path d="M287.9,1311.7h1.9v13.3h-1.9V1311.7z"/>
				<path d="M292.8,1311.7h1.9l7.3,10.4v-10.4h1.9v13.3H302l-7.3-10.4v10.4h-1.9V1311.7z"/>
				<path d="M313.8,1318.2h4.7v5.3c-0.3,0.2-0.5,0.4-0.9,0.7c-0.3,0.2-0.7,0.4-1.1,0.6c-0.4,0.2-0.9,0.3-1.4,0.4
					c-0.5,0.1-1.1,0.2-1.8,0.2c-1,0-2-0.2-2.8-0.5s-1.5-0.8-2.1-1.5c-0.6-0.6-1-1.4-1.4-2.2s-0.5-1.8-0.5-2.8c0-1,0.2-1.9,0.5-2.7
					c0.3-0.9,0.8-1.6,1.4-2.2c0.6-0.6,1.3-1.1,2.1-1.5c0.8-0.4,1.7-0.5,2.7-0.5c0.7,0,1.3,0.1,1.9,0.2c0.6,0.2,1,0.4,1.5,0.6
					c0.4,0.3,0.8,0.5,1.1,0.8c0.3,0.3,0.5,0.6,0.7,0.9l-1.4,1.2c-0.2-0.2-0.4-0.5-0.6-0.7s-0.5-0.5-0.8-0.7c-0.3-0.2-0.7-0.4-1-0.5
					c-0.4-0.1-0.8-0.2-1.3-0.2c-0.7,0-1.4,0.1-2,0.4c-0.6,0.3-1.1,0.7-1.5,1.1c-0.4,0.5-0.7,1-0.9,1.7c-0.2,0.6-0.3,1.3-0.3,2
					c0,0.8,0.1,1.5,0.4,2.1s0.6,1.2,1,1.7s0.9,0.8,1.5,1.1c0.6,0.3,1.2,0.4,1.9,0.4c0.8,0,1.4-0.1,2-0.3c0.5-0.2,1-0.4,1.4-0.7v-2.7
					h-2.8V1318.2z"/>
			</g>
			<g class="st0">
				<path d="M123.5,1335.7h2.1l4.1,11l4.1-11h2l-5.2,13.3h-2L123.5,1335.7z"/>
				<path d="M140.1,1335.7h2l5.2,13.3h-2.1l-1.4-3.7h-5.5l-1.4,3.7h-2L140.1,1335.7z M143.2,1343.7l-2.2-5.9l-2.2,5.9H143.2z"/>
				<path d="M149.1,1335.7h1.9v11.6h6.9v1.7h-8.9V1335.7z"/>
				<path d="M159.1,1335.7h1.9v7.8c0,0.6,0.1,1.2,0.2,1.7c0.1,0.5,0.3,0.9,0.5,1.3c0.3,0.4,0.6,0.6,1,0.8s1,0.3,1.7,0.3
					c0.7,0,1.2-0.1,1.6-0.3c0.4-0.2,0.8-0.5,1-0.8c0.3-0.4,0.4-0.8,0.5-1.3c0.1-0.5,0.2-1.1,0.2-1.7v-7.8h1.9v8.3
					c0,0.8-0.1,1.5-0.3,2.1c-0.2,0.7-0.5,1.2-1,1.7c-0.4,0.5-1,0.9-1.6,1.2c-0.7,0.3-1.5,0.4-2.4,0.4c-0.9,0-1.7-0.1-2.4-0.4
					c-0.7-0.3-1.2-0.7-1.7-1.2c-0.4-0.5-0.8-1.1-1-1.7c-0.2-0.7-0.3-1.4-0.3-2.1V1335.7z"/>
				<path d="M172.7,1335.7h8.4v1.7h-6.5v3.9h4.9v1.7h-4.9v4.3h7v1.7h-8.9V1335.7z"/>
				<path d="M191.5,1335.7h2l5.2,13.3h-2.1l-1.4-3.7h-5.5l-1.4,3.7h-2L191.5,1335.7z M194.6,1343.7l-2.2-5.9l-2.2,5.9H194.6z"/>
				<path d="M200.6,1345.8c0.2,0.2,0.4,0.4,0.6,0.7c0.2,0.2,0.5,0.4,0.8,0.6c0.3,0.2,0.6,0.3,1,0.4c0.4,0.1,0.8,0.2,1.2,0.2
					c0.9,0,1.6-0.2,2.1-0.6c0.5-0.4,0.7-0.9,0.7-1.6c0-0.7-0.3-1.3-0.8-1.7c-0.6-0.4-1.4-0.7-2.4-0.9c-0.6-0.1-1.1-0.3-1.6-0.5
					c-0.5-0.2-0.9-0.5-1.2-0.8c-0.3-0.3-0.6-0.7-0.8-1.1c-0.2-0.4-0.3-0.9-0.3-1.4c0-0.5,0.1-1,0.3-1.4c0.2-0.4,0.5-0.8,0.8-1.2
					c0.4-0.3,0.8-0.6,1.4-0.8s1.2-0.3,1.9-0.3c0.7,0,1.2,0.1,1.7,0.2c0.5,0.1,0.9,0.3,1.2,0.5c0.3,0.2,0.6,0.4,0.8,0.6
					s0.4,0.4,0.5,0.5l-1.3,1.2c-0.1-0.1-0.2-0.2-0.4-0.4c-0.2-0.2-0.4-0.3-0.6-0.5c-0.2-0.1-0.5-0.3-0.9-0.4
					c-0.3-0.1-0.7-0.2-1.1-0.2s-0.8,0.1-1.1,0.2c-0.3,0.1-0.6,0.3-0.8,0.4c-0.2,0.2-0.3,0.4-0.4,0.6s-0.1,0.5-0.1,0.7
					c0,0.3,0.1,0.6,0.2,0.8c0.1,0.2,0.3,0.4,0.6,0.6c0.3,0.2,0.6,0.3,1,0.5c0.4,0.1,0.8,0.2,1.4,0.4c0.5,0.1,1,0.3,1.5,0.5
					c0.5,0.2,0.9,0.5,1.3,0.8c0.4,0.3,0.7,0.7,0.9,1.2c0.2,0.5,0.3,1,0.3,1.7c0,0.6-0.1,1.1-0.4,1.6c-0.2,0.5-0.6,0.9-1,1.2
					c-0.4,0.4-0.9,0.6-1.5,0.8c-0.6,0.2-1.2,0.3-1.9,0.3c-0.6,0-1.2-0.1-1.7-0.2s-1-0.3-1.4-0.6c-0.4-0.2-0.8-0.5-1.1-0.8
					c-0.3-0.3-0.6-0.5-0.8-0.8L200.6,1345.8z"/>
				<path d="M221.5,1349.3c-1,0-1.9-0.2-2.7-0.5c-0.8-0.4-1.5-0.9-2.2-1.5c-0.6-0.6-1.1-1.4-1.4-2.2c-0.3-0.9-0.5-1.8-0.5-2.7
					c0-1,0.2-1.9,0.5-2.7s0.8-1.6,1.4-2.2c0.6-0.6,1.3-1.1,2.2-1.5c0.8-0.4,1.7-0.5,2.7-0.5c1,0,1.9,0.2,2.7,0.5
					c0.8,0.4,1.6,0.9,2.2,1.5c0.6,0.6,1.1,1.4,1.4,2.2s0.5,1.8,0.5,2.7c0,1-0.2,1.9-0.5,2.7c-0.3,0.9-0.8,1.6-1.4,2.2
					c-0.6,0.6-1.3,1.1-2.2,1.5C223.4,1349.2,222.5,1349.3,221.5,1349.3z M221.5,1347.5c0.7,0,1.4-0.1,2-0.4c0.6-0.3,1.1-0.7,1.5-1.1
					c0.4-0.5,0.7-1,1-1.7c0.2-0.6,0.3-1.3,0.3-2c0-0.7-0.1-1.4-0.3-2c-0.2-0.6-0.5-1.2-1-1.7c-0.4-0.5-0.9-0.9-1.5-1.1
					c-0.6-0.3-1.3-0.4-2-0.4c-0.7,0-1.4,0.1-2,0.4c-0.6,0.3-1.1,0.7-1.5,1.1c-0.4,0.5-0.7,1-1,1.7c-0.2,0.6-0.3,1.3-0.3,2
					c0,0.7,0.1,1.4,0.3,2c0.2,0.6,0.6,1.2,1,1.7c0.4,0.5,0.9,0.9,1.5,1.1S220.8,1347.5,221.5,1347.5z"/>
				<path d="M230.8,1335.7h8.4v1.7h-6.5v4.1h4.9v1.7h-4.9v5.8h-1.9V1335.7z"/>
				<path d="M248.5,1347.7c0-0.7,0.2-1.3,0.5-1.9c0.3-0.5,0.7-1,1.2-1.5c0.6-0.6,1.1-1.1,1.6-1.5c0.5-0.4,1-0.8,1.4-1.1
					s0.7-0.7,0.9-1c0.2-0.3,0.3-0.7,0.3-1.2c0-0.2,0-0.4-0.1-0.6c-0.1-0.2-0.2-0.4-0.4-0.6c-0.2-0.2-0.4-0.3-0.7-0.4
					c-0.3-0.1-0.6-0.2-1-0.2c-0.4,0-0.7,0.1-1,0.2c-0.3,0.1-0.5,0.2-0.7,0.4c-0.2,0.1-0.4,0.3-0.5,0.5c-0.1,0.2-0.3,0.4-0.4,0.5
					l-1.3-1c0.1-0.2,0.3-0.5,0.5-0.8s0.5-0.5,0.8-0.7s0.7-0.4,1.2-0.5s1-0.2,1.5-0.2c0.7,0,1.3,0.1,1.8,0.3s0.9,0.4,1.2,0.8
					s0.6,0.7,0.7,1.1c0.2,0.4,0.2,0.8,0.2,1.3c0,0.5-0.1,0.9-0.2,1.3c-0.2,0.4-0.4,0.8-0.6,1.1s-0.6,0.7-0.9,1s-0.7,0.6-1,0.9
					c-0.4,0.3-0.8,0.7-1.2,1c-0.4,0.3-0.7,0.6-1,0.9c-0.3,0.3-0.5,0.6-0.6,0.9c-0.2,0.3-0.2,0.6-0.2,0.9h6v1.6h-8V1347.7z"/>
				<path d="M263.5,1349.3c-0.8,0-1.5-0.2-2.1-0.5c-0.6-0.3-1.1-0.8-1.5-1.4c-0.4-0.6-0.7-1.3-0.9-2.1c-0.2-0.8-0.3-1.7-0.3-2.8
					c0-1,0.1-1.9,0.3-2.7c0.2-0.8,0.5-1.5,0.9-2.1c0.4-0.6,0.9-1,1.5-1.3c0.6-0.3,1.3-0.5,2.1-0.5c0.8,0,1.5,0.2,2.1,0.5
					c0.6,0.3,1.1,0.7,1.5,1.3c0.4,0.6,0.7,1.2,0.9,2.1c0.2,0.8,0.3,1.7,0.3,2.7c0,1-0.1,1.9-0.3,2.8c-0.2,0.8-0.5,1.5-0.9,2.1
					c-0.4,0.6-0.9,1-1.5,1.4C264.9,1349.1,264.3,1349.3,263.5,1349.3z M263.5,1347.6c0.5,0,0.9-0.1,1.3-0.4c0.4-0.2,0.7-0.6,0.9-1
					c0.2-0.4,0.4-1,0.6-1.6s0.2-1.3,0.2-2.1c0-0.7-0.1-1.4-0.2-2c-0.1-0.6-0.3-1.1-0.6-1.5s-0.6-0.7-0.9-1c-0.4-0.2-0.8-0.3-1.3-0.3
					c-0.5,0-0.9,0.1-1.3,0.3c-0.4,0.2-0.7,0.6-0.9,1c-0.2,0.4-0.4,0.9-0.6,1.5c-0.1,0.6-0.2,1.3-0.2,2c0,0.7,0.1,1.4,0.2,2.1
					c0.1,0.6,0.3,1.2,0.6,1.6c0.2,0.4,0.6,0.8,0.9,1C262.6,1347.5,263,1347.6,263.5,1347.6z"/>
				<path d="M271.8,1347.4h2.2v-9.1l-2.6,1.4l-0.7-1.4l3.5-1.9h1.6v11.1h2.2v1.6h-6.3V1347.4z"/>
				<path d="M282,1347c0,0,0.1,0.1,0.3,0.2s0.3,0.2,0.5,0.2s0.4,0.1,0.7,0.2c0.3,0.1,0.5,0.1,0.8,0.1c0.6,0,1-0.1,1.5-0.4
					c0.4-0.2,0.8-0.5,1-0.9c0.3-0.4,0.5-0.8,0.6-1.3c0.1-0.5,0.2-1,0.2-1.6c-0.2,0.2-0.6,0.4-1.1,0.6c-0.5,0.2-1.1,0.3-1.9,0.3
					c-0.6,0-1.1-0.1-1.6-0.3c-0.5-0.2-0.9-0.5-1.2-0.9c-0.3-0.4-0.6-0.8-0.8-1.3c-0.2-0.5-0.3-1.1-0.3-1.7c0-0.6,0.1-1.2,0.3-1.7
					c0.2-0.5,0.5-1,0.9-1.3c0.4-0.4,0.8-0.7,1.3-0.9c0.5-0.2,1.1-0.3,1.7-0.3c1.4,0,2.5,0.5,3.3,1.5c0.8,1,1.2,2.5,1.2,4.5
					c0,1.1-0.1,2.1-0.3,3c-0.2,0.9-0.5,1.6-1,2.3c-0.4,0.6-1,1.1-1.6,1.4s-1.4,0.5-2.3,0.5c-0.3,0-0.7,0-1-0.1
					c-0.3-0.1-0.6-0.1-0.9-0.2c-0.3-0.1-0.5-0.2-0.7-0.3c-0.2-0.1-0.4-0.2-0.5-0.3L282,1347z M287.6,1341.9c0-1.3-0.2-2.3-0.6-3.1
					s-1.1-1.1-2-1.1c-0.3,0-0.6,0.1-0.9,0.2s-0.6,0.3-0.8,0.5s-0.4,0.5-0.6,0.8c-0.1,0.3-0.2,0.7-0.2,1.1c0,0.3,0,0.7,0.1,1
					c0.1,0.3,0.2,0.6,0.4,0.8s0.4,0.4,0.8,0.5c0.3,0.1,0.7,0.2,1.1,0.2c0.7,0,1.2-0.1,1.6-0.3S287.3,1342.1,287.6,1341.9z"/>
			</g>
		</g>
	</g>
</g>
</svg>
