<svg xmlns="http://www.w3.org/2000/svg" width="52.082" height="49.82" viewBox="0 0 52.082 49.82">
  <g id="Group_3456" data-name="Group 3456" transform="translate(15035.211 -11090.507) rotate(-9)">
    <g id="Ellipse_70" data-name="Ellipse 70" transform="translate(-16586 8608)" fill="none" stroke="#000" stroke-width="4">
      <circle cx="19.613" cy="19.613" r="19.613" stroke="none"/>
      <circle cx="19.613" cy="19.613" r="17.613" fill="none"/>
    </g>
    <line id="Line_311" data-name="Line 311" x2="9.807" y2="11.768" transform="translate(-16553.639 8642.323)" fill="none" stroke="#000" stroke-linecap="round" stroke-width="4"/>
  </g>
</svg>
