<?xml version="1.0" encoding="utf-8"?>
<!-- Generator: Adobe Illustrator 24.0.1, SVG Export Plug-In . SVG Version: 6.00 Build 0)  -->
<svg version="1.1" id="Group_1615" xmlns="http://www.w3.org/2000/svg" xmlns:xlink="http://www.w3.org/1999/xlink" x="0px" y="0px"
	 viewBox="0 0 110 110" style="enable-background:new 0 0 110 110;" xml:space="preserve">
<style type="text/css">
	.st0{fill:none;}
	.st1{fill:#00A4E4;}
</style>
<g id="Path_2090">
	<path class="st0" d="M55,0c30.4,0,55,24.6,55,55s-24.6,55-55,55S0,85.4,0,55S24.6,0,55,0z"/>
	<path class="st1" d="M55,2c-7.2,0-14.1,1.4-20.6,4.2c-6.3,2.7-12,6.5-16.8,11.4S8.8,28.1,6.2,34.4C3.4,40.9,2,47.8,2,55
		s1.4,14.1,4.2,20.6c2.7,6.3,6.5,12,11.4,16.8s10.5,8.7,16.8,11.4c6.5,2.8,13.5,4.2,20.6,4.2s14.1-1.4,20.6-4.2
		c6.3-2.7,12-6.5,16.8-11.4s8.7-10.5,11.4-16.8c2.8-6.5,4.2-13.5,4.2-20.6s-1.4-14.1-4.2-20.6c-2.7-6.3-6.5-12-11.4-16.8
		S81.9,8.8,75.6,6.2C69.1,3.4,62.2,2,55,2 M55,0c30.4,0,55,24.6,55,55s-24.6,55-55,55S0,85.4,0,55S24.6,0,55,0z"/>
</g>
<g id="Polygon_2" transform="translate(68.571 43) rotate(90)">
	<path class="st0" d="M12,0l12,20.6H0L12,0z"/>
	<path class="st1" d="M12,4L3.5,18.6h17L12,4 M12,0l12,20.6H0L12,0z"/>
</g>
</svg>
