<?xml version="1.0" encoding="utf-8"?>
<!-- Generator: Adobe Illustrator 24.0.1, SVG Export Plug-In . SVG Version: 6.00 Build 0)  -->
<svg version="1.1" id="Layer_1" xmlns="http://www.w3.org/2000/svg" xmlns:xlink="http://www.w3.org/1999/xlink" x="0px" y="0px"
	 viewBox="0 0 11.4 20.7" style="enable-background:new 0 0 11.4 20.7;" xml:space="preserve">
<style type="text/css">
	.st0{fill:none;stroke:#00A4E4;stroke-width:1.5;}
</style>
<path id="Path_1796" class="st0" d="M10.9,0.5l-9.8,9.8l9.8,9.8"/>
</svg>
